Case Study: How does a bike share navigate speedy success?
…
Rides by month

We will count the number of rides taken each month.

#Calculating the number of rides during each month
monthly_rides <- allmonths %>%
                  group_by(member_casual, month) %>%
                    summarize(count = n())

`summarise()` has grouped output by 'member_casual'. You can override using the
`.groups` argument.

monthly_rides

# A tibble: 24 × 3
# Groups:   member_casual [2]
   member_casual month  count
   <chr>         <fct>  <int>
 1 Guest         Nov21 106735
 2 Guest         Dec21  69594
 3 Guest         Jan22  18450
 4 Guest         Feb22  21350
 5 Guest         Mar22  89647
 6 Guest         Apr22 126121
 7 Guest         May22 279801
 8 Guest         Jun22 368141
 9 Guest         Jul22 405237
10 Guest         Aug22 358241
# ℹ 14 more rows
…
Ride length by month

We will also compare the median ridelengths for each month.

# Calculate the median ridelength over the year for each membership group.
monthly_ridelength <- allmonths %>%
                        group_by(member_casual, month) %>%
                          summarize(median_ridelength = median(ridelength))

`summarise()` has grouped output by 'member_casual'. You can override using the
`.groups` argument.

monthly_ridelength

# A tibble: 24 × 3
# Groups:   member_casual [2]
   member_casual month median_ridelength
   <chr>         <fct>             <dbl>
 1 Guest         Nov21              11.2
 2 Guest         Dec21              10.9
 3 Guest         Jan22              10.1
 4 Guest         Feb22              10.9
 5 Guest         Mar22              14.2
 6 Guest         Apr22              13.8
 7 Guest         May22              15.2
 8 Guest         Jun22              14.3
 9 Guest         Jul22              14.0
10 Guest         Aug22              13.0
# ℹ 14 more rows
…
